{"failedCount":1,"prefixedPath":"classpath:com\/test\/features\/testApi.feature","packageQualifiedName":"com.test.features.testApi","loopIndex":-1,"relativePath":"com\/test\/features\/testApi.feature","scenarioResults":[{"sectionIndex":0,"stepResults":[{"result":{"nanos":70859100,"millis":70.8591,"status":"passed"},"step":{"line":4,"prefix":"Given","index":0,"text":"url 'https:\/\/reqres.in\/api\/users?page=2'"}},{"result":{"nanos":531859700,"millis":531.8597,"status":"passed"},"step":{"line":5,"prefix":"When","index":1,"text":"method GET"},"stepLog":"14:43:14.764 request:\n1 > GET https:\/\/reqres.in\/api\/users?page=2\n1 > Host: reqres.in\n1 > Connection: Keep-Alive\n1 > User-Agent: Apache-HttpClient\/4.5.13 (Java\/12.0.2)\n1 > Accept-Encoding: gzip,deflate\n\n\n14:43:14.951 response time in milliseconds: 172\n1 < 200\n1 < Date: Thu, 27 Jul 2023 13:43:16 GMT\n1 < Content-Type: application\/json; charset=utf-8\n1 < Transfer-Encoding: chunked\n1 < Connection: keep-alive\n1 < X-Powered-By: Express\n1 < Access-Control-Allow-Origin: *\n1 < Etag: W\/\"406-ut0vzoCuidvyMf8arZpMpJ6ZRDw\"\n1 < Via: 1.1 vegur\n1 < Cache-Control: max-age=14400\n1 < CF-Cache-Status: HIT\n1 < Age: 2671\n1 < Report-To: {\"endpoints\":[{\"url\":\"https:\\\/\\\/a.nel.cloudflare.com\\\/report\\\/v3?s=q0Qcw6kEc1garkiW5SaSX3OGrFC2AH2LMOUzBzZRB5p41DKojFrtkcF%2BA1s69RV730qs88phyvZzQAw5m%2BqhRDnDAhlgiwlvF2pIlZcVxEwuNvUmpYh78Dnyww%3D%3D\"}],\"group\":\"cf-nel\",\"max_age\":604800}\n1 < NEL: {\"success_fraction\":0,\"report_to\":\"cf-nel\",\"max_age\":604800}\n1 < Vary: Accept-Encoding\n1 < Server: cloudflare\n1 < CF-RAY: 7ed54f753d907545-LHR\n{\"page\":2,\"per_page\":6,\"total\":12,\"total_pages\":2,\"data\":[{\"id\":7,\"email\":\"michael.lawson@reqres.in\",\"first_name\":\"Michael\",\"last_name\":\"Lawson\",\"avatar\":\"https:\/\/reqres.in\/img\/faces\/7-image.jpg\"},{\"id\":8,\"email\":\"lindsay.ferguson@reqres.in\",\"first_name\":\"Lindsay\",\"last_name\":\"Ferguson\",\"avatar\":\"https:\/\/reqres.in\/img\/faces\/8-image.jpg\"},{\"id\":9,\"email\":\"tobias.funke@reqres.in\",\"first_name\":\"Tobias\",\"last_name\":\"Funke\",\"avatar\":\"https:\/\/reqres.in\/img\/faces\/9-image.jpg\"},{\"id\":10,\"email\":\"byron.fields@reqres.in\",\"first_name\":\"Byron\",\"last_name\":\"Fields\",\"avatar\":\"https:\/\/reqres.in\/img\/faces\/10-image.jpg\"},{\"id\":11,\"email\":\"george.edwards@reqres.in\",\"first_name\":\"George\",\"last_name\":\"Edwards\",\"avatar\":\"https:\/\/reqres.in\/img\/faces\/11-image.jpg\"},{\"id\":12,\"email\":\"rachel.howell@reqres.in\",\"first_name\":\"Rachel\",\"last_name\":\"Howell\",\"avatar\":\"https:\/\/reqres.in\/img\/faces\/12-image.jpg\"}],\"support\":{\"url\":\"https:\/\/reqres.in\/#support-heading\",\"text\":\"To keep ReqRes free, contributions towards server costs are appreciated!\"}}\n\n"},{"result":{"nanos":20200,"millis":0.0202,"status":"passed"},"step":{"line":6,"prefix":"Then","index":2,"text":"status 200"}}],"executorName":"main","line":2,"name":"testing the get call for User Details","description":"","durationMillis":602.739,"startTime":1690465394357,"failed":false,"refId":"[1:2]","endTime":1690465394967,"exampleIndex":-1},{"sectionIndex":1,"stepResults":[{"result":{"nanos":94309700,"millis":94.3097,"status":"passed"},"step":{"line":9,"prefix":"Given","index":0,"text":"request read('classpath:com\/test\/requests\/Create.json')"}},{"result":{"nanos":746200,"millis":0.7462,"status":"passed"},"step":{"line":10,"prefix":"And","index":1,"text":"header Content-Type = 'application\/json; charset=UTF-8'"}},{"result":{"nanos":485400,"millis":0.4854,"status":"passed"},"step":{"line":11,"prefix":"Given","index":2,"text":"url 'https:\/\/reqres.in\/api\/users'"}},{"result":{"nanos":128577000,"millis":128.577,"status":"passed"},"step":{"line":12,"prefix":"When","index":3,"text":"method POST"},"stepLog":"14:43:15.120 request:\n1 > POST https:\/\/reqres.in\/api\/users\n1 > Content-Type: application\/json; charset=UTF-8\n1 > Content-Length: 34\n1 > Host: reqres.in\n1 > Connection: Keep-Alive\n1 > User-Agent: Apache-HttpClient\/4.5.13 (Java\/12.0.2)\n1 > Accept-Encoding: gzip,deflate\n{\"name\":\"morpheus\",\"job\":\"leader\"}\n\n14:43:15.198 response time in milliseconds: 78\n1 < 201\n1 < Date: Thu, 27 Jul 2023 13:43:16 GMT\n1 < Content-Type: application\/json; charset=utf-8\n1 < Content-Length: 84\n1 < Connection: keep-alive\n1 < X-Powered-By: Express\n1 < Access-Control-Allow-Origin: *\n1 < Etag: W\/\"54-ImOTXoaycZAMkT1rov8DmAgBTSo\"\n1 < Via: 1.1 vegur\n1 < CF-Cache-Status: DYNAMIC\n1 < Report-To: {\"endpoints\":[{\"url\":\"https:\\\/\\\/a.nel.cloudflare.com\\\/report\\\/v3?s=Y28Z2U46ObZ4r%2F7pXhIWvv32tOv%2FtfVjBy5gtJAIPJc6SUhJ%2BU5JjBFhI0diWWNj8%2FR4q19EH1UCKVcga%2B4t9x6DfCqXaLfjnneTW0ZCruLL1agaXpE2OzVBkQ%3D%3D\"}],\"group\":\"cf-nel\",\"max_age\":604800}\n1 < NEL: {\"success_fraction\":0,\"report_to\":\"cf-nel\",\"max_age\":604800}\n1 < Server: cloudflare\n1 < CF-RAY: 7ed54f76cdae76ea-LHR\n{\"name\":\"morpheus\",\"job\":\"leader\",\"id\":\"680\",\"createdAt\":\"2023-07-27T13:43:16.309Z\"}\n\n"},{"result":{"nanos":10100,"millis":0.0101,"status":"passed"},"step":{"line":13,"prefix":"Then","index":4,"text":"status 201"}},{"result":{"nanos":15693500,"millis":15.6935,"status":"passed"},"step":{"line":14,"prefix":"And","index":5,"text":"match $.name == 'morpheus'"}}],"executorName":"main","line":8,"name":"testing to add User Details","description":"","durationMillis":239.8219,"startTime":1690465394983,"failed":false,"refId":"[2:8]","endTime":1690465395214,"exampleIndex":-1},{"sectionIndex":2,"stepResults":[{"result":{"nanos":3149700,"millis":3.1497,"status":"passed"},"step":{"line":17,"prefix":"Given","index":0,"text":"request read('classpath:com\/test\/requests\/Create1.json')"}},{"result":{"nanos":2744600,"millis":2.7446,"status":"passed"},"step":{"line":18,"prefix":"Given","index":1,"text":"url 'https:\/\/reqres.in\/api\/users'"}},{"result":{"nanos":98343600,"millis":98.3436,"status":"passed"},"step":{"line":19,"prefix":"When","index":2,"text":"method POST"},"stepLog":"14:43:15.230 request:\n1 > POST https:\/\/reqres.in\/api\/users\n1 > Content-Type: application\/json; charset=UTF-8\n1 > Content-Length: 28\n1 > Host: reqres.in\n1 > Connection: Keep-Alive\n1 > User-Agent: Apache-HttpClient\/4.5.13 (Java\/12.0.2)\n1 > Accept-Encoding: gzip,deflate\n{\"name\":\"avijit\",\"job\":\"It\"}\n\n14:43:15.340 response time in milliseconds: 110\n1 < 201\n1 < Date: Thu, 27 Jul 2023 13:43:16 GMT\n1 < Content-Type: application\/json; charset=utf-8\n1 < Content-Length: 78\n1 < Connection: keep-alive\n1 < X-Powered-By: Express\n1 < Access-Control-Allow-Origin: *\n1 < Etag: W\/\"4e-zCxlSh\/rYA3oT6LJCSV2gXCqVqQ\"\n1 < Via: 1.1 vegur\n1 < CF-Cache-Status: DYNAMIC\n1 < Report-To: {\"endpoints\":[{\"url\":\"https:\\\/\\\/a.nel.cloudflare.com\\\/report\\\/v3?s=CtY2zcvoxKDxBG5FosJYBgrHusdLNshhSjIpZgDeIGMY9sU%2FrWXw7wgcyrXWL0%2FuNLlrvZjwNyf7qaFuUYFIT%2BNtwedPf8YweO6kvTI5WgCOJXQIY%2BwtWJ5GRA%3D%3D\"}],\"group\":\"cf-nel\",\"max_age\":604800}\n1 < NEL: {\"success_fraction\":0,\"report_to\":\"cf-nel\",\"max_age\":604800}\n1 < Server: cloudflare\n1 < CF-RAY: 7ed54f777ec306c9-LHR\n{\"name\":\"avijit\",\"job\":\"It\",\"id\":\"119\",\"createdAt\":\"2023-07-27T13:43:16.431Z\"}\n\n"},{"result":{"nanos":8700,"millis":0.0087,"status":"passed"},"step":{"line":20,"prefix":"Then","index":3,"text":"status 201"}}],"line":24,"description":"","durationMillis":104.2466,"failed":false,"executorName":"main","name":"testing to add User Details using TestData","startTime":1690465395230,"refId":"[3.1:24]","endTime":1690465395341,"exampleData":{"Name":"avijit","Job":"It"},"exampleIndex":0},{"sectionIndex":2,"stepResults":[{"result":{"nanos":1351800,"millis":1.3518,"status":"passed"},"step":{"line":17,"prefix":"Given","index":0,"text":"request read('classpath:com\/test\/requests\/Create1.json')"}},{"result":{"nanos":154400,"millis":0.1544,"status":"passed"},"step":{"line":18,"prefix":"Given","index":1,"text":"url 'https:\/\/reqres.in\/api\/users'"}},{"result":{"nanos":100996700,"millis":100.9967,"status":"passed"},"step":{"line":19,"prefix":"When","index":2,"text":"method POST"},"stepLog":"14:43:15.349 request:\n1 > POST https:\/\/reqres.in\/api\/users\n1 > Content-Type: application\/json; charset=UTF-8\n1 > Content-Length: 33\n1 > Host: reqres.in\n1 > Connection: Keep-Alive\n1 > User-Agent: Apache-HttpClient\/4.5.13 (Java\/12.0.2)\n1 > Accept-Encoding: gzip,deflate\n{\"name\":\"Kucho\",\"job\":\"Bodmaysi\"}\n\n14:43:15.437 response time in milliseconds: 87\n1 < 201\n1 < Date: Thu, 27 Jul 2023 13:43:16 GMT\n1 < Content-Type: application\/json; charset=utf-8\n1 < Content-Length: 83\n1 < Connection: keep-alive\n1 < X-Powered-By: Express\n1 < Access-Control-Allow-Origin: *\n1 < Etag: W\/\"53-fHqXutYRRLxT9aWVbdW0L4B+YIQ\"\n1 < Via: 1.1 vegur\n1 < CF-Cache-Status: DYNAMIC\n1 < Report-To: {\"endpoints\":[{\"url\":\"https:\\\/\\\/a.nel.cloudflare.com\\\/report\\\/v3?s=wbG76sGPxbQUhQwj38GwkFIMQkPxE%2FqWfaQqZR57krSS7GOaWtBmndAI8L1%2B%2BmaoxF1%2BINJ5nPA4r6KrC7pIdTA8tXnJSjOMAogyssK5meEiAuhLYlfndaCEsA%3D%3D\"}],\"group\":\"cf-nel\",\"max_age\":604800}\n1 < NEL: {\"success_fraction\":0,\"report_to\":\"cf-nel\",\"max_age\":604800}\n1 < Server: cloudflare\n1 < CF-RAY: 7ed54f783ddd4134-LHR\n{\"name\":\"Kucho\",\"job\":\"Bodmaysi\",\"id\":\"379\",\"createdAt\":\"2023-07-27T13:43:16.548Z\"}\n\n"},{"result":{"nanos":9100,"millis":0.0091,"status":"passed"},"step":{"line":20,"prefix":"Then","index":3,"text":"status 201"}}],"line":25,"description":"","durationMillis":102.512,"failed":false,"executorName":"main","name":"testing to add User Details using TestData","startTime":1690465395346,"refId":"[3.2:25]","endTime":1690465395437,"exampleData":{"Name":"Kucho","Job":"Bodmaysi"},"exampleIndex":1},{"sectionIndex":3,"stepResults":[{"result":{"nanos":2461900,"millis":2.4619,"status":"passed"},"step":{"line":28,"prefix":"Given","index":0,"text":"request read('classpath:com\/test\/requests\/Login.json')"}},{"result":{"nanos":356000,"millis":0.356,"status":"passed"},"step":{"line":29,"prefix":"Given","index":1,"text":"url 'https:\/\/reqres.in\/api\/login'"}},{"result":{"nanos":94449500,"millis":94.4495,"status":"passed"},"step":{"line":30,"prefix":"When","index":2,"text":"method POST"},"stepLog":"14:43:15.468 request:\n1 > POST https:\/\/reqres.in\/api\/login\n1 > Content-Type: application\/json; charset=UTF-8\n1 > Content-Length: 54\n1 > Host: reqres.in\n1 > Connection: Keep-Alive\n1 > User-Agent: Apache-HttpClient\/4.5.13 (Java\/12.0.2)\n1 > Accept-Encoding: gzip,deflate\n{\"email\":\"eve.holt@reqres.in\",\"password\":\"cityslicka\"}\n\n14:43:15.546 response time in milliseconds: 78\n1 < 200\n1 < Date: Thu, 27 Jul 2023 13:43:16 GMT\n1 < Content-Type: application\/json; charset=utf-8\n1 < Content-Length: 29\n1 < Connection: keep-alive\n1 < X-Powered-By: Express\n1 < Access-Control-Allow-Origin: *\n1 < Etag: W\/\"1d-lGCrvD6B7Qzk11+2C98+nGhhuec\"\n1 < Via: 1.1 vegur\n1 < CF-Cache-Status: DYNAMIC\n1 < Report-To: {\"endpoints\":[{\"url\":\"https:\\\/\\\/a.nel.cloudflare.com\\\/report\\\/v3?s=eMgfpkbtDk1tcnzJQp9TELzdPQIBeBhuht3q7Jm2cRyCesr4z4v0jxdLsAefpvqrzYErnCWdaMarKLBNQrr0u4yNlU9HeU8lO7oVJPqIe8TMWcgqrIjPCkv%2Bsg%3D%3D\"}],\"group\":\"cf-nel\",\"max_age\":604800}\n1 < NEL: {\"success_fraction\":0,\"report_to\":\"cf-nel\",\"max_age\":604800}\n1 < Server: cloudflare\n1 < CF-RAY: 7ed54f78ecd2386d-LHR\n{\"token\":\"QpwL5tke4Pnpja7X4\"}\n\n"},{"result":{"nanos":9000,"millis":0.009,"status":"passed"},"step":{"line":31,"prefix":"Then","index":3,"text":"status 200"}},{"result":{"nanos":14635200,"millis":14.6352,"status":"passed"},"step":{"line":32,"prefix":"And","index":4,"text":"print response"},"stepLog":"14:43:15.562 [print] {\n  \"token\": \"QpwL5tke4Pnpja7X4\"\n}\n \n"}],"line":35,"description":"","durationMillis":111.9116,"failed":false,"executorName":"main","name":"testing to User Login","startTime":1690465395452,"refId":"[4.1:35]","endTime":1690465395562,"exampleData":{"Email":"eve.holt@reqres.in","Password":"cityslicka"},"exampleIndex":0},{"sectionIndex":3,"stepResults":[{"result":{"nanos":1307800,"millis":1.3078,"status":"passed"},"step":{"line":28,"prefix":"Given","index":0,"text":"request read('classpath:com\/test\/requests\/Login.json')"}},{"result":{"nanos":140600,"millis":0.1406,"status":"passed"},"step":{"line":29,"prefix":"Given","index":1,"text":"url 'https:\/\/reqres.in\/api\/login'"}},{"result":{"nanos":102966200,"millis":102.9662,"status":"passed"},"step":{"line":30,"prefix":"When","index":2,"text":"method POST"},"stepLog":"14:43:15.577 request:\n1 > POST https:\/\/reqres.in\/api\/login\n1 > Content-Type: application\/json; charset=UTF-8\n1 > Content-Length: 38\n1 > Host: reqres.in\n1 > Connection: Keep-Alive\n1 > User-Agent: Apache-HttpClient\/4.5.13 (Java\/12.0.2)\n1 > Accept-Encoding: gzip,deflate\n{\"email\":\"avijit\",\"password\":\"avijit\"}\n\n14:43:15.671 response time in milliseconds: 94\n1 < 400\n1 < Date: Thu, 27 Jul 2023 13:43:16 GMT\n1 < Content-Type: application\/json; charset=utf-8\n1 < Content-Length: 26\n1 < Connection: keep-alive\n1 < X-Powered-By: Express\n1 < Access-Control-Allow-Origin: *\n1 < Etag: W\/\"1a-EGIcyP6BIiCXl5Gb1aph5CGf4VQ\"\n1 < Via: 1.1 vegur\n1 < CF-Cache-Status: DYNAMIC\n1 < Report-To: {\"endpoints\":[{\"url\":\"https:\\\/\\\/a.nel.cloudflare.com\\\/report\\\/v3?s=BvLRO1%2Bn1VPbdjVoa2MPttVaeiWjMgrzc2vO3iTNTfNFsB9zEMyFv%2Bnvhu8bgsz1GEXEPvTSUTAbBQPjrB4y%2FUMazvJzyypVGnTgvJqg9klIPqFkHEuFDRHNaQ%3D%3D\"}],\"group\":\"cf-nel\",\"max_age\":604800}\n1 < NEL: {\"success_fraction\":0,\"report_to\":\"cf-nel\",\"max_age\":604800}\n1 < Server: cloudflare\n1 < CF-RAY: 7ed54f799f8324ab-LHR\n{\"error\":\"user not found\"}\n\n"},{"result":{"nanos":144300,"errorMessage":"status code was: 400, expected: 200, response time in milliseconds: 94, url: https:\/\/reqres.in\/api\/login, response: \n{\"error\":\"user not found\"}\nclasspath:com\/test\/features\/testApi.feature:31","millis":0.1443,"status":"failed"},"step":{"line":31,"prefix":"Then","index":3,"text":"status 200"},"stepLog":"14:43:15.687 classpath:com\/test\/features\/testApi.feature:31\nThen status 200\nstatus code was: 400, expected: 200, response time in milliseconds: 94, url: https:\/\/reqres.in\/api\/login, response: \n{\"error\":\"user not found\"}\nclasspath:com\/test\/features\/testApi.feature:31\n"},{"result":{"nanos":0,"millis":0.0,"status":"skipped"},"step":{"line":32,"prefix":"And","index":4,"text":"print response"}}],"line":35,"description":"","durationMillis":104.5589,"failed":true,"error":"status code was: 400, expected: 200, response time in milliseconds: 94, url: https:\/\/reqres.in\/api\/login, response: \n{\"error\":\"user not found\"}\nclasspath:com\/test\/features\/testApi.feature:31","executorName":"main","name":"testing to User Login","startTime":1690465395577,"refId":"[4.2:35]","endTime":1690465395687,"exampleData":{"Email":"avijit","Password":"avijit"},"exampleIndex":1}],"callDepth":0,"name":"fetching and Adding User Details","description":"","resultDate":"2023-07-27 02:43:15 PM","durationMillis":1265.79,"passedCount":5}